{
  "defaultSeverity": "warning",
  "extends": [
    "tslint:recommended"
  ],
  "linterOptions": {
    "exclude": [
      "node_modules/**"
    ]
  },
  "rules": {
    "no-console": false,
    "indent": [true, "spaces", 2],
    "interface-name": false,
    "no-consecutive-blank-lines": false,
    "object-literal-sort-keys": false,
    "ordered-imports": false,
    "quotemark": [true, "single"],
    "max-line-length": [true, 160],
    "variable-name": {
      "options": [
        "ban-keywords",
        "check-format",
        "allow-leading-underscore",
        "allow-pascal-case"
      ]
    },
    "trailing-comma": [
      true,
      {
        "multiline": {
          "objects": "ignore",
          "arrays": "ignore"
        },
        "singleline": {
          "objects": "ignore",
          "arrays": "ignore"
        }
      }
    ]
  }
}
